{
    "3374": {
        "1": {
            "cible": ". / omnia cum ueterum sint explorata libellis , / multa ",
            "contexte": "te breuitas asserit esse meam . / omnia cum ueterum sint explorata libellis , / multa loqui breuiter sit nouitatis ",
            "source": "<match> ecce parens uerus patriae<el>,</el> dignissimus aris<el>,</el> roma<el>,</el> tuis<el>,</el> per quem numquam iurare pudebit<el>,</el> et quem<el>,</el> si steteris umquam ceruice soluta<el>,</el> nunc<el>,</el> olim<el>,</el> factura deum<el>es</el><el>.</el></match>",
            "ratio": 20.0,
            "score": 15,
            "idstart": 28,
            "idend": 38,
            "exactMatch": 0,
            "hasMatchedAPattern": 1
        },
        "208": {
            "cible": "rupi soluo , uoluo uolui , cudo ",
            "contexte": ", uinco uici , rumpo rupi , soluo solui , uoluo uolui , cudo cudi . in si ",
            "source": "<match> ecce parens uerus patriae<el>,</el> dignissimus aris<el>,</el> roma<el>,</el> tuis<el>,</el> per quem numquam iurare pudebit<el>,</el> et quem<el>,</el> si steteris umquam ceruice<el>soluta</el><el>,</el> nunc<el>,</el> olim<el>,</el> factura deum es .</match>",
            "ratio": 20.0,
            "score": 14,
            "idstart": 9107,
            "idend": 9115,
            "exactMatch": 0,
            "hasMatchedAPattern": 1
        },
        "209": {
            "cible": "soluo , uoluo uolui , cudo ",
            "contexte": "uici , rumpo rupi , soluo solui , uoluo uolui , cudo cudi . in si ",
            "source": "<match> ecce parens uerus patriae<el>,</el> dignissimus aris<el>,</el> roma<el>,</el> tuis<el>,</el> per quem numquam iurare pudebit<el>,</el> et quem<el>,</el> si steteris umquam ceruice<el>soluta</el><el>,</el> nunc<el>,</el> olim<el>,</el> factura deum es .</match>",
            "ratio": 25.0,
            "score": 14,
            "idstart": 9109,
            "idend": 9115,
            "exactMatch": 0,
            "hasMatchedAPattern": 1
        },
        "212": {
            "cible": "uolui , cudo . in si praeteritum mittunt ",
            "contexte": ", soluo solui , uoluo uolui , cudo cudi . in si praeteritum mittunt illa uerba , quae ",
            "source": "<match> ecce parens uerus patriae<el>,</el> dignissimus aris<el>,</el> roma<el>,</el> tuis<el>,</el> per quem numquam iurare pudebit<el>,</el> et quem<el>,</el><el>si</el> steteris umquam ceruice soluta<el>,</el> nunc<el>,</el> olim<el>,</el> factura deum es<el>.</el></match>",
            "ratio": 20.0,
            "score": 15,
            "idstart": 9113,
            "idend": 9121,
            "exactMatch": 0,
            "hasMatchedAPattern": 1
        },
        "248": {
            "cible": "cum faciat , in participio futuri temporis minime deficit ",
            "contexte": "pertimesco delitesco . ualeo tantum cum faciat conualesco , in participio futuri temporis minime deficit : nam ualiturus dicendum ",
            "source": "<match> ecce parens uerus patriae<el>,</el> dignissimus aris<el>,</el> roma<el>,</el> tuis<el>,</el> per quem numquam iurare pudebit<el>,</el> et quem<el>,</el> si steteris umquam ceruice soluta<el>,</el> nunc<el>,</el> olim<el>,</el> factura deum<el>es</el> .</match>",
            "ratio": 16.67,
            "score": 14,
            "idstart": 10492,
            "idend": 10501,
            "exactMatch": 0,
            "hasMatchedAPattern": 1
        },
        "249": {
            "cible": "faciat , in participio futuri temporis minime deficit ",
            "contexte": "delitesco . ualeo tantum cum faciat conualesco , in participio futuri temporis minime deficit : nam ualiturus dicendum ",
            "source": "<match> ecce parens uerus patriae<el>,</el> dignissimus aris<el>,</el> roma<el>,</el> tuis<el>,</el> per quem numquam iurare pudebit<el>,</el> et quem<el>,</el> si steteris umquam ceruice soluta<el>,</el> nunc<el>,</el> olim<el>,</el> factura deum<el>es</el> .</match>",
            "ratio": 16.67,
            "score": 14,
            "idstart": 10493,
            "idend": 10501,
            "exactMatch": 0,
            "hasMatchedAPattern": 1
        },
        "251": {
            "cible": ", in participio futuri minime deficit : nam ualiturus ",
            "contexte": "ualeo tantum cum faciat conualesco , in participio futuri temporis minime deficit : nam ualiturus dicendum est . sunt ",
            "source": "<match> ecce parens uerus patriae<el>,</el> dignissimus aris<el>,</el> roma<el>,</el> tuis<el>,</el> per quem numquam iurare pudebit<el>,</el> et quem<el>,</el> si steteris umquam ceruice soluta<el>,</el> nunc<el>,</el> olim<el>,</el> factura deum<el>es</el> .</match>",
            "ratio": 20.0,
            "score": 14,
            "idstart": 10495,
            "idend": 10504,
            "exactMatch": 0,
            "hasMatchedAPattern": 1
        }
    },
    ,
    "2259": {
        "2": {
            "cible": "omnia , sed diuersi generis . nam quae in o ",
            "contexte": "littera terminata tertiae sunt declinationis omnia , sed diuersi generis . nam quae in o puram desinunt e uocali ",
            "source": "<match> haec et apud seras gentes populosque nepotum<el>,</el> siue sua tantum uenient<el>in</el> saecula fama<el>,</el> siue aliquid magnis nostri quoque cura laboris nominibus prodesse potest<el>,</el> cum bella legentur<el>,</el> spesque metusque simul perituraque uota mouebunt<el>,</el> attonitique<el>omnes</el> ueluti uenientia fata<el>,</el> non transmissa<el>,</el> legent<el>,</el> et adhuc tibi<el>,</el> magne<el>,</el> fauebunt<el>.</el></match>",
            "ratio": 25.0,
            "score": 17,
            "idstart": 1027,
            "idend": 1036,
            "exactMatch": 0,
            "hasMatchedAPattern": 1
        },
        "23": {
            "cible": "tantum modo generis masculini sunt , hic rien ",
            "contexte": "finita i uocali praeposita duo tantum modo generis masculini sunt , hic rien rienis , hic lien ",
            "source": "<match> haec et apud seras gentes populosque nepotum<el>,</el> siue sua<el>tantum</el> uenient in saecula fama<el>,</el> siue aliquid magnis nostri quoque cura laboris nominibus prodesse potest<el>,</el> cum bella legentur<el>,</el> spesque metusque simul perituraque uota mouebunt<el>,</el> attonitique omnes ueluti uenientia fata<el>,</el> non transmissa<el>,</el> legent<el>,</el> et adhuc tibi<el>,</el> magne<el>,</el> fauebunt .</match>",
            "ratio": 20.0,
            "score": 15,
            "idstart": 1719,
            "idend": 1726,
            "exactMatch": 0,
            "hasMatchedAPattern": 1
        },
        "27": {
            "cible": "generis sunt neutri omnia , ut ",
            "contexte": "1974 ] ar syllaba terminata generis sunt neutri omnia , ut hoc lucar , hoc ",
            "source": "<match> haec et apud seras gentes populosque nepotum<el>,</el> siue sua tantum uenient in saecula fama<el>,</el> siue aliquid magnis nostri quoque cura laboris nominibus prodesse potest<el>,</el> cum bella legentur<el>,</el> spesque metusque simul perituraque uota mouebunt<el>,</el> attonitique<el>omnes</el> ueluti uenientia fata<el>,</el> non transmissa<el>,</el> legent<el>,</el> et adhuc tibi<el>,</el> magne<el>,</el> fauebunt .</match>",
            "ratio": 25.0,
            "score": 15,
            "idstart": 1821,
            "idend": 1826,
            "exactMatch": 0,
            "hasMatchedAPattern": 1
        },
  }
